<svg width="24" height="24" viewBox="0 0 24 24" fill="none" xmlns="http://www.w3.org/2000/svg">
<path fill-rule="evenodd" clip-rule="evenodd" d="M1.09384 1.09384C1.21896 0.96872 1.42182 0.96872 1.54694 1.09384L12 11.5469L22.4531 1.09384C22.5782 0.96872 22.781 0.96872 22.9062 1.09384C23.0313 1.21896 23.0313 1.42182 22.9062 1.54694L12.4531 12L22.9062 22.4531C23.0313 22.5782 23.0313 22.781 22.9062 22.9062C22.781 23.0313 22.5782 23.0313 22.4531 22.9062L12 12.4531L1.54694 22.9062C1.42182 23.0313 1.21896 23.0313 1.09384 22.9062C0.96872 22.781 0.96872 22.5782 1.09384 22.4531L11.5469 12L1.09384 1.54694C0.96872 1.42182 0.96872 1.21896 1.09384 1.09384Z" fill="#FF0000" stroke="#FF0000" stroke-width="2" stroke-linecap="round" stroke-linejoin="round"/>
</svg>
