<svg width="35" height="31" viewBox="0 0 35 31" fill="none" xmlns="http://www.w3.org/2000/svg">
<path d="M3.0909 3.10238C-0.803414 6.99669 -0.803414 13.3106 3.09091 17.205C3.09091 17.205 15.6743 30.2987 17.246 30.2987C18.8177 30.2987 31.2961 17.205 31.2961 17.205C34.9962 13.446 35.1904 6.99671 31.2961 3.10239C27.5412 -0.652502 21.5368 -0.786952 17.6209 2.69906C17.4754 2.8285 17.222 3.10237 17.1935 3.10237C17.165 3.10237 16.9115 2.82851 16.766 2.69906C12.8501 -0.786918 6.84578 -0.652499 3.0909 3.10238Z" fill="#646464"/>
</svg>
